0000.004 () Opened log file at time: Tue, 05 Nov 2019 18:29:28 +0000 on http://waukesha-downtown.local
0000.004 () UpdraftPlus WordPress backup plugin (https://updraftplus.com): 1.16.20 WP: 5.2.4 PHP: 7.3.2 (fpm-fcgi, Linux e9ecd41718ee 4.9.93-boot2docker #1 SMP Thu Jul 19 18:29:50 UTC 2018 x86_64) MySQL: 5.6.34 WPLANG: en_US Server: Apache/2.4.10 (Debian) safe_mode: 0 max_execution_time: 900 memory_limit: 256M (used: 3.5M | 2M) multisite: N openssl: OpenSSL 1.0.1t  3 May 2016 mcrypt: N LANG:  ZipArchive::addFile: Y
0000.005 () Free space on disk containing Updraft's temporary directory: 227850.2 MB
0000.004 () Opened log file at time: Tue, 05 Nov 2019 18:29:28 +0000 on http://waukesha-downtown.local
0000.004 () UpdraftPlus WordPress backup plugin (https://updraftplus.com): 1.16.20 WP: 5.2.4 PHP: 7.3.2 (fpm-fcgi, Linux e9ecd41718ee 4.9.93-boot2docker #1 SMP Thu Jul 19 18:29:50 UTC 2018 x86_64) MySQL: 5.6.34 WPLANG: en_US Server: Apache/2.4.10 (Debian) safe_mode: 0 max_execution_time: 900 memory_limit: 256M (used: 2.9M | 2M) multisite: N openssl: OpenSSL 1.0.1t  3 May 2016 mcrypt: N LANG:  ZipArchive::addFile: Y
0000.004 () Free space on disk containing Updraft's temporary directory: 227850.1 MB
0000.005 () Ensuring WP_Filesystem is setup for a restore
0000.007 () WP_Filesystem is setup and ready for a restore
0000.011 () Restore job started. Entities to restore: plugins, themes, uploads, db. Restore options: {"updraft_encryptionphrase":"","updraft_restorer_wpcore_includewpconfig":false,"updraft_incremental_restore_point":-1}
0000.025 () Will not delete any archives after unpacking them, because there was no cloud storage for this backup
0000.026 () Entity: db
0000.026 () restore_backup(backup_file=backup_2019-11-05-1820_Wauk1_fe543b3d06a6-db.gz, type=db, info=a:0:{}, last_one=)
0000.026 () PHP event: code E_NOTICE: Undefined index: path (line 1403, wp-content/plugins/updraftplus/restorer.php)
0000.027 () Unpacking backup... (backup_2019-11-05-1820_Wauk1_fe543b3d06a6-db.gz, 0.1 Mb)
0000.035 () Database successfully unpacked
0000.035 () Restoring the database (on a large site this can take a long time - if it times out (which can happen if your web hosting company has configured your hosting to limit resources) then you should use a different method, such as phpMyAdmin)...
0000.036 () Using direct MySQL access; value of use_mysqli is: 1
0000.036 () SQL compatibility mode is: NO_ENGINE_SUBSTITUTION
0000.048 () Max packet size: 32 MB
0000.048 () Entering maintenance mode
0000.049 () Enabling Maintenance mode&#8230;
0000.051 () Backup of: http://localhost:8020
0000.069 () Content URL: http://localhost:8020/wp-content
0000.069 () Uploads URL: http://localhost:8020/wp-content/uploads
0000.069 () Old table prefix: wp_
0000.069 () Site information: multisite=0
0000.070 () New table prefix: wp_
0000.075 () Processing table (InnoDB): wp_options
0000.144 () Restoring prior UD configuration (table: wp_options; keys: 97)
0000.394 () Processing table (InnoDB): wp_users
0000.403 () Processing table (InnoDB): wp_usermeta
0000.416 () Processing table (InnoDB): wp_commentmeta
0000.429 () Processing table (InnoDB): wp_comments
0000.445 () Processing table (InnoDB): wp_links
0000.456 () Processing table (InnoDB): wp_postmeta
0000.479 () Processing table (InnoDB): wp_posts
0000.498 () Processing table (InnoDB): wp_term_relationships
0000.513 () Processing table (InnoDB): wp_term_taxonomy
0000.529 () Processing table (InnoDB): wp_termmeta
0000.544 () Processing table (InnoDB): wp_terms
0000.555 () Processing table (InnoDB): wp_stream
0000.573 () Processing table (InnoDB): wp_stream_meta
0000.585 () Processing table (InnoDB): wp_yoast_seo_links
0000.592 () Processing table (InnoDB): wp_yoast_seo_meta
0000.599 () Database queries processed: 50 in 0.56 seconds
0000.601 () Unlocking database and leaving maintenance mode
0000.601 () Disabling Maintenance mode&#8230;
0000.602 () Finished: lines processed: 53 in 0.56 seconds
0000.603 () Cleaning up rubbish...
0000.612 () Entity: plugins
0000.612 () restore_backup(backup_file=backup_2019-11-05-1820_Wauk1_fe543b3d06a6-plugins.zip, type=plugins, info=a:2:{s:4:"path";s:30:"/app/public/wp-content/plugins";s:11:"description";s:7:"Plugins";}, last_one=)
0000.612 () Unpacking backup... (backup_2019-11-05-1820_Wauk1_fe543b3d06a6-plugins.zip, 25.7 MB)
0000.615 () Unzipping backup_2019-11-05-1820_Wauk1_fe543b3d06a6-plugins.zip to /app/public/wp-content/upgrade/a9883d3d/ using UpdraftPlus_ZipArchive, starting index 0
0002.394 () Unzip progress: 1002 out of 5028 files (7.3 MB, plugins/wp-smush-pro/app/assets/images/onboarding/graphic-onboarding-auto@2x.png)
0004.483 () Unzip progress: 2003 out of 5028 files (32.1 MB, plugins/updraftplus/includes/Google/IO/Abstract.php)
0006.061 () Unzip progress: 3004 out of 5028 files (51.7 MB, plugins/updraftplus/vendor/guzzle/guzzle/src/Guzzle/Http/Message/RequestInterface.php)
0007.871 () Unzip progress: 4005 out of 5028 files (66.1 MB, plugins/wordpress-seo/admin/config-ui/fields/class-field-upsell-configuration-service.php)
0009.441 () Unzip progress: 5006 out of 5028 files (72.9 MB, plugins/contact-form-7-to-database-extension/help/GoogleSaveScriptEditor.png)
0009.589 () Unzip progress: 5028 out of 5028 files (73.4 MB, plugins/contact-form-7-to-database-extension/DefaultField.php)
0009.593 () Moving old data: filesystem method / updraft_dir is potentially possible
0009.594 () Moving old data: can potentially use wp_filesystem method / -old
0009.594 () Moving old data out of the way...
0011.421 () Top-level entities being moved: index.php, updraftplus
0011.431 () Moving unpacked backup into place...
0019.249 () Top-level entities being moved: hyperdb, launch-search-engine-visibility, sbg-site-config, index.php, akismet, hyperdb-1-1, classic-editor, wpmudev-updates, wp-smush-pro, gravityforms, contact-form-7, elegant-themes-updater, advanced-custom-fields-pro, updraftplus, cim-divi-image-alt-text-v1.1.2, wppusher, tinymce-advanced, sbg-woocommerce-image-alt-attributes, google-analytics-for-wordpress, dwd-map-extended, wordpress-seo, contact-form-7-to-database-extension
0019.338 () Cleaning up rubbish...
0019.343 () Entity: themes
0019.343 () restore_backup(backup_file=backup_2019-11-05-1820_Wauk1_fe543b3d06a6-themes.zip, type=themes, info=a:2:{s:4:"path";s:29:"/app/public/wp-content/themes";s:11:"description";s:6:"Themes";}, last_one=)
0019.345 () Unpacking backup... (backup_2019-11-05-1820_Wauk1_fe543b3d06a6-themes.zip, 4.4 MB)
0019.346 () Unzipping backup_2019-11-05-1820_Wauk1_fe543b3d06a6-themes.zip to /app/public/wp-content/upgrade/7d834356/ using UpdraftPlus_ZipArchive, starting index 0
0020.206 () Unzip progress: 184 out of 184 files (10.6 MB, themes/bootstrap-4/src/scss/style.scss)
0020.207 () Moving old data: filesystem method / updraft_dir is potentially possible
0020.209 () Moving old data: can potentially use wp_filesystem method / -old
0020.209 () Moving old data out of the way...
0020.310 () Top-level entities being moved: twentyseventeen, twentysixteen, twentynineteen, index.php
0020.323 () Moving unpacked backup into place...
0020.366 () Top-level entities being moved: twentynineteen, .DS_Store, bootstrap-4
0020.375 () Cleaning up rubbish...
0020.380 () Entity: uploads
0020.380 () restore_backup(backup_file=backup_2019-11-05-1820_Wauk1_fe543b3d06a6-uploads.zip, type=uploads, info=a:2:{s:4:"path";s:30:"/app/public/wp-content/uploads";s:11:"description";s:7:"Uploads";}, last_one=1)
0020.381 () Unpacking backup... (backup_2019-11-05-1820_Wauk1_fe543b3d06a6-uploads.zip, 1 MB)
0020.382 () Unzipping backup_2019-11-05-1820_Wauk1_fe543b3d06a6-uploads.zip to /app/public/wp-content/upgrade/73e5e69b/ using UpdraftPlus_ZipArchive, starting index 0
0020.490 () Unzip progress: 15 out of 15 files (1 MB, uploads/2019/11/Purdy.png)
0020.492 () Moving old data: filesystem method / updraft_dir is potentially possible
0020.494 () Moving old data: can potentially use wp_filesystem method / -old
0020.494 () Moving old data out of the way...
0020.503 () Moving unpacked backup into place...
0020.511 () Cleaning up rubbish...
0020.742 () Restore successful!
0020.743 () Restore successful
